Data Wrangling and Analyses with Tidyverse
…
Selecting columns and filtering rows

To select columns of a data frame, use select(). The
first argument to this function is the data frame
(variants), and the subsequent arguments are the columns to
keep.

select(variants, sample_id, REF, ALT, DP)

# A tibble: 801 × 4
   sample_id  REF                              ALT                                                         DP
   <chr>      <chr>                            <chr>                                                    <dbl>
 1 SRR2584863 T                                G                                                            4
 2 SRR2584863 G                                T                                                            6
 3 SRR2584863 G                                T                                                           10
 4 SRR2584863 CTTTTTTT                         CTTTTTTTT                                                   12
 5 SRR2584863 CCGC                             CCGCGC                                                      10
 6 SRR2584863 C                                T                                                           10
 7 SRR2584863 C                                A                                                            8
 8 SRR2584863 G                                A                                                           11
 9 SRR2584863 ACAGCCAGCCAGCCAGCCAGCCAGCCAGCCAG ACAGCCAGCCAGCCAGCCAGCCAGCCAGCCAGCCAGCCAGCCAGCCAGCCAGCCAG     3
10 SRR2584863 AT                               ATT                                                          7
# … with 791 more rows

To select all columns except certain ones, put a “-” in
front of the variable to exclude it.

select(variants, -CHROM)

# A tibble: 801 × 28
   sample_id    POS ID    REF   ALT    QUAL FILTER INDEL   IDV    IMF    DP    VDB   RPB   MQB   BQB   MQSB    SGB  MQ0F ICB   HOB  
   <chr>      <dbl> <lgl> <chr> <chr> <dbl> <lgl>  <lgl> <dbl>  <dbl> <dbl>  <dbl> <dbl> <dbl> <dbl>  <dbl>  <dbl> <dbl> <lgl> <lgl>
 1 SRR25848… 9.97e3 NA    T     G        91 NA     FALSE    NA NA         4 0.0257    NA    NA    NA NA     -0.556 0     NA    NA   
 2 SRR25848… 2.63e5 NA    G     T        85 NA     FALSE    NA NA         6 0.0961     1     1     1 NA     -0.591 0.167 NA    NA   
 3 SRR25848… 2.82e5 NA    G     T       217 NA     FALSE    NA NA        10 0.774     NA    NA    NA  0.975 -0.662 0     NA    NA   
 4 SRR25848… 4.33e5 NA    CTTT… CTTT…    64 NA     TRUE     12  1        12 0.478     NA    NA    NA  1     -0.676 0     NA    NA   
 5 SRR25848… 4.74e5 NA    CCGC  CCGC…   228 NA     TRUE      9  0.9      10 0.660     NA    NA    NA  0.916 -0.662 0     NA    NA   
 6 SRR25848… 6.49e5 NA    C     T       210 NA     FALSE    NA NA        10 0.268     NA    NA    NA  0.916 -0.670 0     NA    NA   
 7 SRR25848… 1.33e6 NA    C     A       178 NA     FALSE    NA NA         8 0.624     NA    NA    NA  0.901 -0.651 0     NA    NA   
 8 SRR25848… 1.73e6 NA    G     A       225 NA     FALSE    NA NA        11 0.992     NA    NA    NA  1.01  -0.670 0     NA    NA   
 9 SRR25848… 2.10e6 NA    ACAG… ACAG…    56 NA     TRUE      2  0.667     3 0.902     NA    NA    NA  1     -0.454 0     NA    NA   
10 SRR25848… 2.33e6 NA    AT    ATT     167 NA     TRUE      7  1         7 0.568     NA    NA    NA  1.01  -0.617 0     NA    NA   
# … with 791 more rows, and 8 more variables: AC <dbl>, AN <dbl>, DP4 <chr>, MQ <dbl>, Indiv <chr>, gt_PL <dbl>, gt_GT <dbl>,
#   gt_GT_alleles <chr>

dplyr also provides useful functions to select columns
based on their names. For instance, ends_with() allows you
to select columns that ends with specific letters. For instance, if you
wanted to select columns that end with the letter “B”:

select(variants, ends_with("B"))

# A tibble: 801 × 8
      VDB   RPB   MQB   BQB   MQSB    SGB ICB   HOB  
    <dbl> <dbl> <dbl> <dbl>  <dbl>  <dbl> <lgl> <lgl>
 1 0.0257    NA    NA    NA NA     -0.556 NA    NA   
 2 0.0961     1     1     1 NA     -0.591 NA    NA   
 3 0.774     NA    NA    NA  0.975 -0.662 NA    NA   
 4 0.478     NA    NA    NA  1     -0.676 NA    NA   
 5 0.660     NA    NA    NA  0.916 -0.662 NA    NA   
 6 0.268     NA    NA    NA  0.916 -0.670 NA    NA   
 7 0.624     NA    NA    NA  0.901 -0.651 NA    NA   
 8 0.992     NA    NA    NA  1.01  -0.670 NA    NA   
 9 0.902     NA    NA    NA  1     -0.454 NA    NA   
10 0.568     NA    NA    NA  1.01  -0.617 NA    NA   
# … with 791 more rows

Challenge

Create a table that contains all the columns with the letter “i” and
column “POS”, without columns “Indiv” and “FILTER”. Hint: look at the
help function ends_with() we’ve just covered.

Solution

select(variants, contains("i"), -Indiv, -FILTER, POS)

# A tibble: 801 × 7
   sample_id  ID    INDEL   IDV    IMF ICB       POS
   <chr>      <lgl> <lgl> <dbl>  <dbl> <lgl>   <dbl>
 1 SRR2584863 NA    FALSE    NA NA     NA       9972
 2 SRR2584863 NA    FALSE    NA NA     NA     263235
 3 SRR2584863 NA    FALSE    NA NA     NA     281923
 4 SRR2584863 NA    TRUE     12  1     NA     433359
 5 SRR2584863 NA    TRUE      9  0.9   NA     473901
 6 SRR2584863 NA    FALSE    NA NA     NA     648692
 7 SRR2584863 NA    FALSE    NA NA     NA    1331794
 8 SRR2584863 NA    FALSE    NA NA     NA    1733343
 9 SRR2584863 NA    TRUE      2  0.667 NA    2103887
10 SRR2584863 NA    TRUE      7  1     NA    2333538
# … with 791 more rows

To choose rows, use filter():

filter(variants, sample_id == "SRR2584863")

# A tibble: 25 × 29
   sample_id CHROM    POS ID    REF   ALT    QUAL FILTER INDEL   IDV    IMF    DP    VDB   RPB   MQB   BQB   MQSB    SGB  MQ0F ICB  
   <chr>     <chr>  <dbl> <lgl> <chr> <chr> <dbl> <lgl>  <lgl> <dbl>  <dbl> <dbl>  <dbl> <dbl> <dbl> <dbl>  <dbl>  <dbl> <dbl> <lgl>
 1 SRR25848… CP00… 9.97e3 NA    T     G        91 NA     FALSE    NA NA         4 0.0257    NA    NA    NA NA     -0.556 0     NA   
 2 SRR25848… CP00… 2.63e5 NA    G     T        85 NA     FALSE    NA NA         6 0.0961     1     1     1 NA     -0.591 0.167 NA   
 3 SRR25848… CP00… 2.82e5 NA    G     T       217 NA     FALSE    NA NA        10 0.774     NA    NA    NA  0.975 -0.662 0     NA   
 4 SRR25848… CP00… 4.33e5 NA    CTTT… CTTT…    64 NA     TRUE     12  1        12 0.478     NA    NA    NA  1     -0.676 0     NA   
 5 SRR25848… CP00… 4.74e5 NA    CCGC  CCGC…   228 NA     TRUE      9  0.9      10 0.660     NA    NA    NA  0.916 -0.662 0     NA   
 6 SRR25848… CP00… 6.49e5 NA    C     T       210 NA     FALSE    NA NA        10 0.268     NA    NA    NA  0.916 -0.670 0     NA   
 7 SRR25848… CP00… 1.33e6 NA    C     A       178 NA     FALSE    NA NA         8 0.624     NA    NA    NA  0.901 -0.651 0     NA   
 8 SRR25848… CP00… 1.73e6 NA    G     A       225 NA     FALSE    NA NA        11 0.992     NA    NA    NA  1.01  -0.670 0     NA   
 9 SRR25848… CP00… 2.10e6 NA    ACAG… ACAG…    56 NA     TRUE      2  0.667     3 0.902     NA    NA    NA  1     -0.454 0     NA   
10 SRR25848… CP00… 2.33e6 NA    AT    ATT     167 NA     TRUE      7  1         7 0.568     NA    NA    NA  1.01  -0.617 0     NA   
# … with 15 more rows, and 9 more variables: HOB <lgl>, AC <dbl>, AN <dbl>, DP4 <chr>, MQ <dbl>, Indiv <chr>, gt_PL <dbl>,
#   gt_GT <dbl>, gt_GT_alleles <chr>

filter() will keep all the rows that match the
conditions that are provided. Here are a few examples:

# rows for which the reference genome has T or G
filter(variants, REF %in% c("T", "G"))

# A tibble: 340 × 29
   sample_id  CHROM      POS ID    REF   ALT    QUAL FILTER INDEL   IDV   IMF    DP    VDB    RPB     MQB    BQB   MQSB    SGB  MQ0F
   <chr>      <chr>    <dbl> <lgl> <chr> <chr> <dbl> <lgl>  <lgl> <dbl> <dbl> <dbl>  <dbl>  <dbl>   <dbl>  <dbl>  <dbl>  <dbl> <dbl>
 1 SRR2584863 CP0008… 9.97e3 NA    T     G      91   NA     FALSE    NA    NA     4 0.0257 NA     NA      NA     NA     -0.556 0    
 2 SRR2584863 CP0008… 2.63e5 NA    G     T      85   NA     FALSE    NA    NA     6 0.0961  1      1       1     NA     -0.591 0.167
 3 SRR2584863 CP0008… 2.82e5 NA    G     T     217   NA     FALSE    NA    NA    10 0.774  NA     NA      NA      0.975 -0.662 0    
 4 SRR2584863 CP0008… 1.73e6 NA    G     A     225   NA     FALSE    NA    NA    11 0.992  NA     NA      NA      1.01  -0.670 0    
 5 SRR2584863 CP0008… 2.62e6 NA    G     T      31.9 NA     FALSE    NA    NA    12 0.149   0.954  0.0498  0.775  0.656 -0.512 0.667
 6 SRR2584863 CP0008… 3.00e6 NA    G     A     225   NA     FALSE    NA    NA    15 0.377  NA     NA      NA      1     -0.686 0    
 7 SRR2584863 CP0008… 3.91e6 NA    G     T     225   NA     FALSE    NA    NA    10 0.0699 NA     NA      NA      0.975 -0.662 0    
 8 SRR2584866 CP0008… 9.97e3 NA    T     G     214   NA     FALSE    NA    NA    10 0.0221 NA     NA      NA      1     -0.670 0    
 9 SRR2584866 CP0008… 1.06e4 NA    G     A     225   NA     FALSE    NA    NA    11 0.959  NA     NA      NA      0.952 -0.670 0    
10 SRR2584866 CP0008… 6.40e4 NA    G     A     225   NA     FALSE    NA    NA    18 0.451  NA     NA      NA      1     -0.689 0    
# … with 330 more rows, and 10 more variables: ICB <lgl>, HOB <lgl>, AC <dbl>, AN <dbl>, DP4 <chr>, MQ <dbl>, Indiv <chr>,
#   gt_PL <dbl>, gt_GT <dbl>, gt_GT_alleles <chr>

# rows with QUAL values greater than or equal to 100
filter(variants, QUAL >= 100)

# A tibble: 666 × 29
   sample_id  CHROM        POS ID    REF   ALT    QUAL FILTER INDEL   IDV   IMF    DP    VDB    RPB    MQB    BQB  MQSB    SGB  MQ0F
   <chr>      <chr>      <dbl> <lgl> <chr> <chr> <dbl> <lgl>  <lgl> <dbl> <dbl> <dbl>  <dbl>  <dbl>  <dbl>  <dbl> <dbl>  <dbl> <dbl>
 1 SRR2584863 CP00081…  281923 NA    G     T       217 NA     FALSE    NA  NA      10 0.774  NA     NA     NA     0.975 -0.662 0    
 2 SRR2584863 CP00081…  473901 NA    CCGC  CCGC…   228 NA     TRUE      9   0.9    10 0.660  NA     NA     NA     0.916 -0.662 0    
 3 SRR2584863 CP00081…  648692 NA    C     T       210 NA     FALSE    NA  NA      10 0.268  NA     NA     NA     0.916 -0.670 0    
 4 SRR2584863 CP00081… 1331794 NA    C     A       178 NA     FALSE    NA  NA       8 0.624  NA     NA     NA     0.901 -0.651 0    
 5 SRR2584863 CP00081… 1733343 NA    G     A       225 NA     FALSE    NA  NA      11 0.992  NA     NA     NA     1.01  -0.670 0    
 6 SRR2584863 CP00081… 2333538 NA    AT    ATT     167 NA     TRUE      7   1       7 0.568  NA     NA     NA     1.01  -0.617 0    
 7 SRR2584863 CP00081… 2407766 NA    A     C       104 NA     FALSE    NA  NA       9 0.0231  0.901  0.150  0.751 0.5   -0.591 0.333
 8 SRR2584863 CP00081… 2446984 NA    A     C       225 NA     FALSE    NA  NA      20 0.0714 NA     NA     NA     1     -0.689 0    
 9 SRR2584863 CP00081… 2665639 NA    A     T       225 NA     FALSE    NA  NA      19 0.996  NA     NA     NA     1     -0.690 0    
10 SRR2584863 CP00081… 2999330 NA    G     A       225 NA     FALSE    NA  NA      15 0.377  NA     NA     NA     1     -0.686 0    
# … with 656 more rows, and 10 more variables: ICB <lgl>, HOB <lgl>, AC <dbl>, AN <dbl>, DP4 <chr>, MQ <dbl>, Indiv <chr>,
#   gt_PL <dbl>, gt_GT <dbl>, gt_GT_alleles <chr>

# rows that have TRUE in the column INDEL
filter(variants, INDEL)

# A tibble: 101 × 29
   sample_id  CHROM    POS ID    REF   ALT    QUAL FILTER INDEL   IDV   IMF    DP    VDB   RPB   MQB   BQB   MQSB    SGB  MQ0F ICB  
   <chr>      <chr>  <dbl> <lgl> <chr> <chr> <dbl> <lgl>  <lgl> <dbl> <dbl> <dbl>  <dbl> <dbl> <dbl> <dbl>  <dbl>  <dbl> <dbl> <lgl>
 1 SRR2584863 CP00… 4.33e5 NA    CTTT… CTTT…  64   NA     TRUE     12 1        12 0.478     NA    NA    NA  1     -0.676     0 NA   
 2 SRR2584863 CP00… 4.74e5 NA    CCGC  CCGC… 228   NA     TRUE      9 0.9      10 0.660     NA    NA    NA  0.916 -0.662     0 NA   
 3 SRR2584863 CP00… 2.10e6 NA    ACAG… ACAG…  56   NA     TRUE      2 0.667     3 0.902     NA    NA    NA  1     -0.454     0 NA   
 4 SRR2584863 CP00… 2.33e6 NA    AT    ATT   167   NA     TRUE      7 1         7 0.568     NA    NA    NA  1.01  -0.617     0 NA   
 5 SRR2584863 CP00… 3.90e6 NA    A     AC     43.4 NA     TRUE      2 1         2 0.02      NA    NA    NA NA     -0.454     0 NA   
 6 SRR2584863 CP00… 4.43e6 NA    TGG   T     228   NA     TRUE     10 1        10 0.863     NA    NA    NA  1.01  -0.662     0 NA   
 7 SRR2584866 CP00… 1.48e5 NA    AGGGG AGGG… 122   NA     TRUE      8 1         8 0.0462    NA    NA    NA  0.901 -0.651     0 NA   
 8 SRR2584866 CP00… 1.58e5 NA    GTTT… GTTT…  19.5 NA     TRUE      6 1         6 0.358     NA    NA    NA  1     -0.617     0 NA   
 9 SRR2584866 CP00… 1.73e5 NA    CAA   CA    180   NA     TRUE     11 1        11 0.294     NA    NA    NA  1     -0.670     0 NA   
10 SRR2584866 CP00… 1.75e5 NA    GAA   GA    194   NA     TRUE     10 1        10 0.958     NA    NA    NA  0.952 -0.662     0 NA   
# … with 91 more rows, and 9 more variables: HOB <lgl>, AC <dbl>, AN <dbl>, DP4 <chr>, MQ <dbl>, Indiv <chr>, gt_PL <dbl>,
#   gt_GT <dbl>, gt_GT_alleles <chr>

# rows that don't have missing data in the IDV column
filter(variants, !is.na(IDV))

# A tibble: 101 × 29
   sample_id  CHROM    POS ID    REF   ALT    QUAL FILTER INDEL   IDV   IMF    DP    VDB   RPB   MQB   BQB   MQSB    SGB  MQ0F ICB  
   <chr>      <chr>  <dbl> <lgl> <chr> <chr> <dbl> <lgl>  <lgl> <dbl> <dbl> <dbl>  <dbl> <dbl> <dbl> <dbl>  <dbl>  <dbl> <dbl> <lgl>
 1 SRR2584863 CP00… 4.33e5 NA    CTTT… CTTT…  64   NA     TRUE     12 1        12 0.478     NA    NA    NA  1     -0.676     0 NA   
 2 SRR2584863 CP00… 4.74e5 NA    CCGC  CCGC… 228   NA     TRUE      9 0.9      10 0.660     NA    NA    NA  0.916 -0.662     0 NA   
 3 SRR2584863 CP00… 2.10e6 NA    ACAG… ACAG…  56   NA     TRUE      2 0.667     3 0.902     NA    NA    NA  1     -0.454     0 NA   
 4 SRR2584863 CP00… 2.33e6 NA    AT    ATT   167   NA     TRUE      7 1         7 0.568     NA    NA    NA  1.01  -0.617     0 NA   
 5 SRR2584863 CP00… 3.90e6 NA    A     AC     43.4 NA     TRUE      2 1         2 0.02      NA    NA    NA NA     -0.454     0 NA   
 6 SRR2584863 CP00… 4.43e6 NA    TGG   T     228   NA     TRUE     10 1        10 0.863     NA    NA    NA  1.01  -0.662     0 NA   
 7 SRR2584866 CP00… 1.48e5 NA    AGGGG AGGG… 122   NA     TRUE      8 1         8 0.0462    NA    NA    NA  0.901 -0.651     0 NA   
 8 SRR2584866 CP00… 1.58e5 NA    GTTT… GTTT…  19.5 NA     TRUE      6 1         6 0.358     NA    NA    NA  1     -0.617     0 NA   
 9 SRR2584866 CP00… 1.73e5 NA    CAA   CA    180   NA     TRUE     11 1        11 0.294     NA    NA    NA  1     -0.670     0 NA   
10 SRR2584866 CP00… 1.75e5 NA    GAA   GA    194   NA     TRUE     10 1        10 0.958     NA    NA    NA  0.952 -0.662     0 NA   
# … with 91 more rows, and 9 more variables: HOB <lgl>, AC <dbl>, AN <dbl>, DP4 <chr>, MQ <dbl>, Indiv <chr>, gt_PL <dbl>,
#   gt_GT <dbl>, gt_GT_alleles <chr>
…
# using `|` logical operator
filter(variants, sample_id == "SRR2584863", (INDEL | QUAL >= 100))

# A tibble: 22 × 29
   sample_id  CHROM      POS ID    REF   ALT     QUAL FILTER INDEL   IDV    IMF    DP    VDB    RPB    MQB    BQB  MQSB    SGB  MQ0F
   <chr>      <chr>    <dbl> <lgl> <chr> <chr>  <dbl> <lgl>  <lgl> <dbl>  <dbl> <dbl>  <dbl>  <dbl>  <dbl>  <dbl> <dbl>  <dbl> <dbl>
 1 SRR2584863 CP000…  281923 NA    G     T        217 NA     FALSE    NA NA        10 0.774  NA     NA     NA     0.975 -0.662 0    
 2 SRR2584863 CP000…  433359 NA    CTTT… CTTTT…    64 NA     TRUE     12  1        12 0.478  NA     NA     NA     1     -0.676 0    
 3 SRR2584863 CP000…  473901 NA    CCGC  CCGCGC   228 NA     TRUE      9  0.9      10 0.660  NA     NA     NA     0.916 -0.662 0    
 4 SRR2584863 CP000…  648692 NA    C     T        210 NA     FALSE    NA NA        10 0.268  NA     NA     NA     0.916 -0.670 0    
 5 SRR2584863 CP000… 1331794 NA    C     A        178 NA     FALSE    NA NA         8 0.624  NA     NA     NA     0.901 -0.651 0    
 6 SRR2584863 CP000… 1733343 NA    G     A        225 NA     FALSE    NA NA        11 0.992  NA     NA     NA     1.01  -0.670 0    
 7 SRR2584863 CP000… 2103887 NA    ACAG… ACAGC…    56 NA     TRUE      2  0.667     3 0.902  NA     NA     NA     1     -0.454 0    
 8 SRR2584863 CP000… 2333538 NA    AT    ATT      167 NA     TRUE      7  1         7 0.568  NA     NA     NA     1.01  -0.617 0    
 9 SRR2584863 CP000… 2407766 NA    A     C        104 NA     FALSE    NA NA         9 0.0231  0.901  0.150  0.751 0.5   -0.591 0.333
10 SRR2584863 CP000… 2446984 NA    A     C        225 NA     FALSE    NA NA        20 0.0714 NA     NA     NA     1     -0.689 0    
# … with 12 more rows, and 10 more variables: ICB <lgl>, HOB <lgl>, AC <dbl>, AN <dbl>, DP4 <chr>, MQ <dbl>, Indiv <chr>,
#   gt_PL <dbl>, gt_GT <dbl>, gt_GT_alleles <chr>

Challenge

Select all the mutations that occurred between the positions 1e6 (one
million) and 2e6 (included) that are not indels and have QUAL greater
than 200.

Solution

filter(variants, POS >= 1e6 & POS <= 2e6, !INDEL, QUAL > 200)

# A tibble: 77 × 29
   sample_id  CHROM      POS ID    REF   ALT    QUAL FILTER INDEL   IDV   IMF    DP   VDB   RPB   MQB   BQB  MQSB    SGB  MQ0F ICB  
   <chr>      <chr>    <dbl> <lgl> <chr> <chr> <dbl> <lgl>  <lgl> <dbl> <dbl> <dbl> <dbl> <dbl> <dbl> <dbl> <dbl>  <dbl> <dbl> <lgl>
 1 SRR2584863 CP0008… 1.73e6 NA    G     A       225 NA     FALSE    NA    NA    11 0.992    NA    NA    NA 1.01  -0.670     0 NA   
 2 SRR2584866 CP0008… 1.00e6 NA    A     G       225 NA     FALSE    NA    NA    15 0.481    NA    NA    NA 0.966 -0.686     0 NA   
 3 SRR2584866 CP0008… 1.02e6 NA    A     G       225 NA     FALSE    NA    NA    12 0.242    NA    NA    NA 1     -0.676     0 NA   
 4 SRR2584866 CP0008… 1.06e6 NA    C     T       225 NA     FALSE    NA    NA    17 0.346    NA    NA    NA 1     -0.681     0 NA   
 5 SRR2584866 CP0008… 1.06e6 NA    A     G       206 NA     FALSE    NA    NA     9 0.630    NA    NA    NA 0.925 -0.662     0 NA   
 6 SRR2584866 CP0008… 1.07e6 NA    G     T       225 NA     FALSE    NA    NA    11 0.349    NA    NA    NA 0.975 -0.662     0 NA   
 7 SRR2584866 CP0008… 1.07e6 NA    T     C       225 NA     FALSE    NA    NA    12 0.196    NA    NA    NA 0.975 -0.662     0 NA   
 8 SRR2584866 CP0008… 1.10e6 NA    C     T       225 NA     FALSE    NA    NA    15 0.454    NA    NA    NA 1     -0.681     0 NA   
 9 SRR2584866 CP0008… 1.11e6 NA    C     T       212 NA     FALSE    NA    NA     9 0.179    NA    NA    NA 0.992 -0.651     0 NA   
10 SRR2584866 CP0008… 1.11e6 NA    A     G       225 NA     FALSE    NA    NA    14 0.909    NA    NA    NA 0.951 -0.676     0 NA   
# … with 67 more rows, and 9 more variables: HOB <lgl>, AC <dbl>, AN <dbl>, DP4 <chr>, MQ <dbl>, Indiv <chr>, gt_PL <dbl>,
#   gt_GT <dbl>, gt_GT_alleles <chr>
…
